%YAML 1.1
%TAG !u! tag:unity3d.com,2011:
--- !u!78 &1
TagManager:
  serializedVersion: 2
  tags:
  - Goal
  - Throwable
  - ThrowableArea
  - ShieldPowerup
  - Border
  layers:
  - Default
  - TransparentFX
  - Ignore Raycast
  - 
  - Water
  - UI
  - 
  - 
  - Sfondo
  - Pavimento
  - Giocatore
  - Ostacolo
  - Player1Cam
  - Player2Cam
  - Obstacles
  - Throwables
  - Shield
  - Borders
  - 
  - 
  - 
  - 
  - 
  - 
  - 
  - 
  - 
  - 
  - 
  - 
  - 
  - 
  m_SortingLayers:
  - name: Sfondo
    uniqueID: 484587927
    locked: 0
  - name: Pavimento
    uniqueID: 3666728617
    locked: 0
  - name: Default
    uniqueID: 0
    locked: 0
